<?xml version="1.0" encoding="utf-8"?>
<!-- Generator: Adobe Illustrator 23.1.1, SVG Export Plug-In . SVG Version: 6.00 Build 0)  -->
<svg version="1.1" id="Layer_1" xmlns="http://www.w3.org/2000/svg" xmlns:xlink="http://www.w3.org/1999/xlink" x="0px" y="0px"
	 viewBox="0 0 1994 598" enable-background="new 0 0 1994 598" xml:space="preserve">
<linearGradient id="SVGID_1_" gradientUnits="userSpaceOnUse" x1="699.9712" y1="216.0119" x2="699.0084" y2="82.1809">
	<stop  offset="0" style="stop-color:#1D083F"/>
	<stop  offset="0.3198" style="stop-color:#331C67"/>
	<stop  offset="0.7758" style="stop-color:#51379B"/>
	<stop  offset="0.9995" style="stop-color:#5C41AF"/>
</linearGradient>
<path opacity="0.8" fill="url(#SVGID_1_)" d="M909.4,143c-2.2,0-4.3,0.1-6.4,0.2c-3.6-5.2-14.9-9-28.3-9c-11.7,0-21.8,2.9-26.6,7.1
	c-6,0.4-11.8,0.9-17.1,1.7c-2.5-10.1-15-17.8-30.1-17.8c-5.5,0-10.6,1-15.1,2.8c-1.1-3.7-3.3-7.2-6.3-10.5c4.1-4.5,6.4-9.7,6.4-15.2
	c0-17.1-22.1-30.9-49.4-30.9c-21.2,0-39.3,8.3-46.3,20.1c-5.8-1.1-12-1.7-18.5-1.7c-32.2,0-58.3,14.7-58.3,32.9
	c0,1.6,0.2,3.3,0.6,4.8c-4.1-1.5-8.8-2.3-13.7-2.3c-16.2,0-29.4,8.8-30.5,20c-9.4-2.2-20-3.6-31.4-4c-4.6-4.1-14.2-7-25.3-7
	c-15.6,0-28.2,5.6-28.2,12.5c0,0.2,0,0.5,0.1,0.7c-1.5-0.1-2.9-0.1-4.4-0.1c-29.1,0-52.7,16.6-52.7,37.1c0,20.5,23.6,37.1,52.7,37.1
	c22.6,0,41.8-10,49.3-24.1c4.9,2.5,11,4,17.6,4c7.7,0,14.8-2.1,20.1-5.5c4.5,13,21.2,22.6,41,22.6c22.5,0,40.8-12.4,42.1-28
	c12.9,4.2,31.5,6.8,52.2,6.8c27.2,0,50.8-4.6,62.7-11.2c5,11.5,25.6,20.1,50.2,20.1c20.6,0,38.4-6,46.5-14.7
	c11.3,6.3,28.2,10.3,46.9,10.3c34.2,0,61.9-13.2,61.9-29.5C971.3,156.1,943.6,143,909.4,143z"/>
<linearGradient id="SVGID_2_" gradientUnits="userSpaceOnUse" x1="1635.9192" y1="181.2793" x2="1634.9564" y2="47.4483">
	<stop  offset="0" style="stop-color:#1D083F"/>
	<stop  offset="0.3198" style="stop-color:#331C67"/>
	<stop  offset="0.7758" style="stop-color:#51379B"/>
	<stop  offset="0.9995" style="stop-color:#5C41AF"/>
</linearGradient>
<path opacity="0.8" fill="url(#SVGID_2_)" d="M1845.4,108.2c-2.2,0-4.3,0.1-6.4,0.2c-3.6-5.2-14.9-9-28.3-9
	c-11.7,0-21.8,2.9-26.6,7.1c-6,0.4-11.8,0.9-17.1,1.7c-2.5-10.1-15-17.8-30.1-17.8c-5.5,0-10.6,1-15.1,2.8
	c-1.1-3.7-3.3-7.2-6.3-10.5c4.1-4.5,6.4-9.7,6.4-15.2c0-17.1-22.1-30.9-49.4-30.9c-21.2,0-39.3,8.3-46.3,20.1
	c-5.8-1.1-12-1.7-18.5-1.7c-32.2,0-58.3,14.7-58.3,32.9c0,1.6,0.2,3.3,0.6,4.8c-4.1-1.5-8.8-2.3-13.7-2.3c-16.2,0-29.4,8.8-30.5,20
	c-9.4-2.2-20-3.6-31.4-4c-4.6-4.1-14.2-7-25.3-7c-15.6,0-28.2,5.6-28.2,12.5c0,0.2,0,0.5,0.1,0.7c-1.5-0.1-2.9-0.1-4.4-0.1
	c-29.1,0-52.7,16.6-52.7,37.1c0,20.5,23.6,37.1,52.7,37.1c22.6,0,41.8-10,49.3-24.1c4.9,2.5,11,4,17.6,4c7.7,0,14.8-2.1,20.1-5.5
	c4.5,13,21.2,22.6,41,22.6c22.5,0,40.8-12.4,42.1-28c12.9,4.2,31.5,6.8,52.2,6.8c27.2,0,50.8-4.6,62.7-11.2
	c5,11.5,25.6,20.1,50.2,20.1c20.6,0,38.4-6,46.5-14.7c11.3,6.3,28.2,10.3,46.9,10.3c34.2,0,61.9-13.2,61.9-29.5
	C1907.2,121.4,1879.5,108.2,1845.4,108.2z"/>
<linearGradient id="SVGID_3_" gradientUnits="userSpaceOnUse" x1="291.554" y1="261.2334" x2="291.554" y2="84.2384">
	<stop  offset="0" style="stop-color:#1D083F"/>
	<stop  offset="0.3198" style="stop-color:#331C67"/>
	<stop  offset="0.7758" style="stop-color:#51379B"/>
	<stop  offset="0.9995" style="stop-color:#5C41AF"/>
</linearGradient>
<path fill="url(#SVGID_3_)" d="M559,228.9c-2.2,0-4.4,0.3-6.4,0.9c-4.3-7.9-16.5-14.6-33.4-19.1c-3.2-9.4-16.9-16.4-33.5-16.4
	c-13.6,0-25.3,4.8-30.8,11.7c-7,0.6-13.6,1.5-19.8,2.7c-2.9-16.7-17.4-29.3-34.9-29.3c-6.1,0-11.8,1.6-16.8,4.2
	c3.8-6.2,6-13.4,6-21.2c0-22.4-18.1-40.5-40.5-40.5c-9.3,0-17.9,3.2-24.7,8.5c-0.9-25.6-21.9-46.1-47.8-46.1
	c-26.4,0-47.7,21.3-47.8,47.7c-3.6-1.2-7.4-1.8-11.4-1.8c-20.2,0-36.6,16.4-36.6,36.6c0,6.2,1.5,12,4.3,17.1
	c-5.1-2.8-10.9-4.4-17.1-4.4c-18.7,0-34.1,14.5-35.4,32.9c-10.9-3.6-23.2-5.9-36.4-6.5c-5.3-6.8-16.5-11.5-29.3-11.5
	c-18,0-32.7,9.2-32.7,20.5c0,0.5,0,1,0.1,1.6c-20.5,9.3-33.7,23.7-33.7,39.9c0,1.6,0.1,3.3,0.4,4.9h354.8h70.5h93H537H581
	c1.1-2.7,1.7-5.6,1.7-8.7C582.6,239.5,572.1,228.9,559,228.9z"/>
<linearGradient id="SVGID_4_" gradientUnits="userSpaceOnUse" x1="1625.9163" y1="335.3034" x2="1625.9163" y2="158.3084">
	<stop  offset="0" style="stop-color:#1D083F"/>
	<stop  offset="0.3198" style="stop-color:#331C67"/>
	<stop  offset="0.7758" style="stop-color:#51379B"/>
	<stop  offset="0.9995" style="stop-color:#5C41AF"/>
</linearGradient>
<path fill="url(#SVGID_4_)" d="M1893.4,303c-2.2,0-4.4,0.3-6.4,0.9c-4.3-7.9-16.5-14.6-33.4-19.1c-3.2-9.4-16.9-16.4-33.5-16.4
	c-13.6,0-25.3,4.8-30.8,11.7c-7,0.6-13.6,1.5-19.8,2.7c-2.9-16.7-17.4-29.3-34.9-29.3c-6.1,0-11.8,1.6-16.8,4.2
	c3.8-6.2,6-13.4,6-21.2c0-22.4-18.1-40.5-40.5-40.5c-9.3,0-17.9,3.2-24.7,8.5c-0.9-25.6-21.9-46.1-47.8-46.1
	c-26.4,0-47.7,21.3-47.8,47.7c-3.6-1.2-7.4-1.8-11.4-1.8c-20.2,0-36.6,16.4-36.6,36.6c0,6.2,1.5,12,4.3,17.1
	c-5.1-2.8-10.9-4.4-17.1-4.4c-18.7,0-34.1,14.5-35.4,32.9c-10.9-3.6-23.2-5.9-36.4-6.5c-5.3-6.8-16.5-11.5-29.3-11.5
	c-18,0-32.7,9.2-32.7,20.5c0,0.5,0,1,0.1,1.6c-20.5,9.3-33.7,23.7-33.7,39.9c0,1.6,0.1,3.3,0.4,4.9h354.8h70.5h93h17.8h43.9
	c1.1-2.7,1.7-5.6,1.7-8.7C1917,313.6,1906.4,303,1893.4,303z"/>
<linearGradient id="SVGID_5_" gradientUnits="userSpaceOnUse" x1="486.3904" y1="374.0706" x2="486.3904" y2="148.3962">
	<stop  offset="0" style="stop-color:#1D083F"/>
	<stop  offset="0.3198" style="stop-color:#331C67"/>
	<stop  offset="0.7758" style="stop-color:#51379B"/>
	<stop  offset="0.9995" style="stop-color:#5C41AF"/>
</linearGradient>
<path opacity="0.8" fill="url(#SVGID_5_)" d="M777.5,275.2c0-13.1-10.6-23.6-23.6-23.6c-2.2,0-4.4,0.3-6.4,0.9
	c-4.3-7.9-16.5-14.6-33.4-19.1c-3.2-9.4-16.9-16.4-33.5-16.4c-13.6,0-25.3,4.8-30.8,11.7c-7,0.6-13.6,1.5-19.8,2.7
	C627,214.7,612.5,202,595,202c-6.3,0-12.3,1.7-17.5,4.6c-5-23.1-26.9-42.4-56.9-51.8c0,0-14-6.4-40.9-6.4c-30.5,0-42.7,6.4-42.7,6.4
	c-30,9.4-52,28.8-56.9,51.8c-5.2-2.9-11.1-4.6-17.5-4.6c-18.7,0-34.1,14.5-35.4,32.9c-10.9-3.6-23.2-5.9-36.4-6.5
	c-5.3-6.8-16.4-11.5-29.3-11.5c-18,0-32.7,9.2-32.7,20.6c0,0.5,0,1,0.1,1.6c-20.5,9.3-33.7,23.7-33.7,39.9c0,0.3,0,0.6,0,0.8
	c0,0.2,0,0.5,0,0.7c0,13.1,4.1,63.3,96.9,58.2c13.6-0.7,25.3-4.8,30.8-11.7c7-0.6,13.6-1.5,19.8-2.7c2.9,16.7,17.4,29.3,34.9,29.3
	c6.3,0,12.3-1.7,17.5-4.6c5,23.1,36.7,28,59.3,23.5c30.9-6,36.3-30.4,36.3-30.4c5.2,2.9,207.6-3.4,220.4-3.4
	c18,0,32.7-9.2,32.7-20.6c0-0.5,0-1-0.1-1.6c20.5-9.3,33.7-23.7,33.7-39.9c0-0.3,0-0.6,0-0.8C777.5,275.6,777.5,275.4,777.5,275.2z"
	/>
<linearGradient id="SVGID_6_" gradientUnits="userSpaceOnUse" x1="1701.6893" y1="468.8501" x2="1701.6893" y2="243.1757">
	<stop  offset="0" style="stop-color:#1D083F"/>
	<stop  offset="0.3198" style="stop-color:#331C67"/>
	<stop  offset="0.7758" style="stop-color:#51379B"/>
	<stop  offset="0.9995" style="stop-color:#5C41AF"/>
</linearGradient>
<path opacity="0.8" fill="url(#SVGID_6_)" d="M1992.8,369.9c0-13.1-10.6-23.6-23.6-23.6c-2.2,0-4.4,0.3-6.4,0.9
	c-4.3-7.9-16.5-14.6-33.4-19.1c-3.2-9.4-16.9-16.4-33.5-16.4c-13.6,0-25.3,4.8-30.8,11.7c-7,0.6-13.6,1.5-19.8,2.7
	c-2.9-16.7-17.4-29.3-34.9-29.3c-6.3,0-12.3,1.7-17.5,4.6c-5-23.1-26.9-42.4-56.9-51.8c0,0-14-6.4-40.9-6.4
	c-30.5,0-42.7,6.4-42.7,6.4c-30,9.4-52,28.8-56.9,51.8c-5.2-2.9-11.1-4.6-17.5-4.6c-18.7,0-34.1,14.5-35.4,32.9
	c-10.9-3.6-23.2-5.9-36.4-6.5c-5.3-6.8-16.4-11.5-29.3-11.5c-18,0-32.7,9.2-32.7,20.6c0,0.5,0,1,0.1,1.6
	c-20.5,9.3-33.7,23.7-33.7,39.9c0,0.3,0,0.6,0,0.8c0,0.2,0,0.5,0,0.7c0,13.1,4.1,63.3,96.9,58.2c13.6-0.7,25.3-4.8,30.8-11.7
	c7-0.6,13.6-1.5,19.8-2.7c2.9,16.7,17.4,29.3,34.9,29.3c6.3,0,12.3-1.7,17.5-4.6c5,23.1,36.7,28,59.3,23.5
	c30.9-6,36.3-30.4,36.3-30.4c5.2,2.9,207.6-3.4,220.4-3.4c18,0,32.7-9.2,32.7-20.6c0-0.5,0-1-0.1-1.6c20.5-9.3,33.7-23.7,33.7-39.9
	c0-0.3,0-0.6,0-0.8C1992.7,370.4,1992.8,370.2,1992.8,369.9z"/>
<linearGradient id="SVGID_7_" gradientUnits="userSpaceOnUse" x1="727.3237" y1="400.3471" x2="727.3237" y2="218.196">
	<stop  offset="0" style="stop-color:#1D083F"/>
	<stop  offset="0.3198" style="stop-color:#331C67"/>
	<stop  offset="0.7758" style="stop-color:#51379B"/>
	<stop  offset="0.9995" style="stop-color:#5C41AF"/>
</linearGradient>
<path opacity="0.8" fill="url(#SVGID_7_)" d="M917.2,313.6c-4.4,0-8.7,0.4-12.8,1.2c-4.5-18.7-21.3-32.5-41.3-32.5
	c-7.4,0-14.4,1.9-20.4,5.2c-5.2-39.2-35.1-69.3-71.3-69.3c-35.9,0-65.7,29.6-71.2,68.4c-13.9-6-31.6-9.6-50.9-9.6
	c-42.9,0-77.9,17.8-80.2,40.1c-50.6,19.9-86.3,49.4-97.1,83.2h504.7c4-7.9,6.3-16.7,6.3-26C982.8,340.8,953.4,313.6,917.2,313.6z"/>
<linearGradient id="SVGID_8_" gradientUnits="userSpaceOnUse" x1="412.8743" y1="510.2909" x2="411.2857" y2="289.4688">
	<stop  offset="0" style="stop-color:#1D083F"/>
	<stop  offset="0.3198" style="stop-color:#331C67"/>
	<stop  offset="0.7758" style="stop-color:#51379B"/>
	<stop  offset="0.9995" style="stop-color:#5C41AF"/>
</linearGradient>
<path opacity="0.8" fill="url(#SVGID_8_)" d="M655.6,389.5c-2.5,0-5,0.1-7.4,0.3c-4.1-8.5-17.2-14.8-32.8-14.8
	c-13.6,0-25.3,4.8-30.8,11.7c-7,0.6-13.6,1.5-19.8,2.7c-2.9-16.7-17.4-29.3-34.9-29.3c-6.3,0-12.3,1.7-17.5,4.6
	c-1.3-6-3.8-11.8-7.3-17.2c4.7-7.4,7.4-15.9,7.4-25c0-28.1-25.6-50.8-57.3-50.8c-24.6,0-45.5,13.7-53.6,33c-6.7-1.8-14-2.8-21.5-2.8
	c-37.3,0-67.5,24.2-67.5,54c0,2.7,0.3,5.4,0.7,8c-4.8-2.4-10.2-3.8-15.9-3.8c-18.7,0-34.1,14.5-35.4,32.9
	c-10.9-3.6-23.2-5.9-36.4-6.5c-5.3-6.8-16.4-11.5-29.3-11.5c-18,0-32.7,9.2-32.7,20.6c0,0.4,0,0.8,0.1,1.2c-1.7-0.1-3.4-0.2-5.2-0.2
	c-33.7,0-61.1,27.3-61.1,61.1c0,33.7,27.3,61.1,61.1,61.1c26.2,0,48.5-16.5,57.2-39.6c5.7,4.1,12.8,6.6,20.4,6.6
	c9,0,17.1-3.4,23.3-9c5.3,21.4,24.5,37.2,47.5,37.2c26,0,47.3-20.3,48.9-46c15,6.9,36.6,11.2,60.5,11.2c31.5,0,58.9-7.5,72.7-18.5
	c5.8,18.9,29.6,33,58.2,33c23.9,0,44.5-9.9,54-24.1c13.2,10.3,32.6,16.9,54.4,16.9c39.6,0,71.7-21.7,71.7-48.4
	C727.3,411.1,695.2,389.5,655.6,389.5z"/>
<linearGradient id="SVGID_9_" gradientUnits="userSpaceOnUse" x1="552.5778" y1="597.3284" x2="552.5778" y2="393.1344">
	<stop  offset="0" style="stop-color:#1D083F"/>
	<stop  offset="0.3198" style="stop-color:#331C67"/>
	<stop  offset="0.7758" style="stop-color:#51379B"/>
	<stop  offset="0.9995" style="stop-color:#5C41AF"/>
</linearGradient>
<path opacity="0.8" fill="url(#SVGID_9_)" d="M765.4,500.1c-4.9,0-9.7,0.5-14.4,1.3c-5-20.9-23.8-36.5-46.3-36.5
	c-8.3,0-16.1,2.1-22.9,5.9c-5.8-44-39.4-77.7-79.9-77.7c-40.2,0-73.6,33.2-79.8,76.7c-15.5-6.7-35.4-10.8-57.1-10.8
	c-48.1,0-87.4,19.9-90,45c-56.7,22.4-96.7,55.4-108.9,93.3h565.7c4.5-8.8,7.1-18.7,7.1-29.1C839,530.6,806.1,500.1,765.4,500.1z"/>
<linearGradient id="SVGID_10_" gradientUnits="userSpaceOnUse" x1="1223.1091" y1="575.2855" x2="1223.1091" y2="0.5578">
	<stop  offset="0" style="stop-color:#1D083F"/>
	<stop  offset="4.036486e-02" style="stop-color:#220C48"/>
	<stop  offset="0.2359" style="stop-color:#371F6D"/>
	<stop  offset="0.4316" style="stop-color:#472E8A"/>
	<stop  offset="0.6252" style="stop-color:#53399E"/>
	<stop  offset="0.8157" style="stop-color:#5A3FAB"/>
	<stop  offset="0.9995" style="stop-color:#5C41AF"/>
</linearGradient>
<path fill="url(#SVGID_10_)" d="M1381.5,575.3h109.4h21h51.7c1.3-3.2,2-6.6,2-10.2c0-15.4-12.5-27.8-27.8-27.8
	c-2.6,0-5.1,0.4-7.5,1.1c-5-9.3-19.4-17.2-39.3-22.4c-3.7-11-19.9-19.3-39.4-19.3c-16,0-29.8,5.6-36.3,13.7
	c-8.2,0.7-16,1.8-23.3,3.2c-3.4-19.6-20.5-34.5-41.1-34.5c-7.5,0-14.5,2-20.5,5.4c-5.8-27.1-31.7-49.8-67-61l-31.1-191.2l11.9-0.2
	l20.7,37.8c0.9,1.6,2.4,2.4,4.2,2.5l13.5-0.2c1.4-0.2,2.5-0.7,3.4-1.5c0.6-0.6,1-1.3,1.2-2.1l16-64.3c0.3-1.7-0.1-3.2-1.1-4.4
	l-38.4-41.5c1.1-14.8,1.5-27.8,1.5-39.1c-0.4-25.1-4.5-46.6-12.2-64.5c-7.7-17.9-20.4-35.6-38.2-52.8c-0.9-0.9-2.1-1.3-3.4-1.3
	c-1.4,0.1-2.5,0.6-3.5,1.6c-18.1,18.6-30.5,36.4-37.2,53.4c-6.7,17-9.9,38.7-9.6,65.1c0.2,11.3,1.1,24.3,2.5,39.1l-37.2,42.6
	c-1,1.3-1.3,2.8-1,4.4l17.8,63.8c0.6,2.2,2.2,3.4,4.7,3.5l13.5-0.2c1.3,0,2.4-0.5,3.4-1.5c0.4-0.4,0.7-0.8,0.8-1.1L1185,233
	l11.1-0.2l-31,190.7c-35.3,11.1-61.2,33.8-67,61c-6.1-3.4-13.1-5.4-20.5-5.4c-22,0-40.1,17.1-41.6,38.7c-12.8-4.2-27.3-7-42.8-7.7
	c-6.3-8-19.4-13.5-34.5-13.5c-21.2,0-38.4,10.8-38.4,24.2c0,0.6,0,1.2,0.1,1.8c-24.1,10.9-39.6,27.9-39.6,46.9
	c0,1.9,0.2,3.9,0.5,5.8h417.4H1381.5z M1231.7,70.3l-19.2,14l-19.2-14c-0.5-0.4-0.7-1.1-0.5-1.7l2.2-6.8l4.4-13.6
	c0.2-0.7,1.2-0.7,1.4,0l4.4,13.6h14.6l4.4-13.6c0.2-0.7,1.2-0.7,1.4,0l4.4,13.6l2.2,6.8C1232.5,69.2,1232.3,69.9,1231.7,70.3z"/>
<path fill="#DB3B21" d="M1112.2,147.8c1.8-6.8,15.1-10.6,36.3-10.4c4.2,0,8.6,0.2,13.2,0.6c-0.1-0.9-0.1-1.9-0.2-2.8
	c-4.5-0.3-8.9-0.5-13-0.6c-29.4-0.3-37.5,6.6-39,12.4c-2.3,8.7,8.2,19.1,25.7,29.2c2.9,1.7,6.1,3.4,9.4,5l1.9-2.1
	C1122.8,167.2,1110.2,155.4,1112.2,147.8z"/>
<path fill="#DB3B21" d="M1267.4,162.4c14.9,5.6,27.6,11.5,37.5,17.3c17.8,10.3,26.9,20,25.2,26.5c-1.6,6.1-12.5,9.8-30,10.3
	l-0.7,2.8c24.8-0.6,31.9-6.9,33.4-12.4c3.9-14.6-28.5-34-69.2-48.7c0,0,0,0.1,0,0.1L1267.4,162.4z"/>
<path fill="#DB3B21" d="M1106,113.4c-1.8-6.8,7.8-16.7,26.3-27.1c9.5-5.4,20.9-10.6,33.6-15.5c0.3-1.1,0.5-2.2,0.8-3.3
	c-13.5,5.1-25.6,10.7-35.7,16.4c-25.6,14.5-29.2,24.4-27.6,30.3c2.3,8.7,16.6,12.4,36.8,12.4c6.4,0,13.5-0.4,20.9-1.1
	c0-0.9-0.1-1.8-0.1-2.7C1129,125.8,1108.3,121.9,1106,113.4z"/>
<path fill="#DB3B21" d="M1288.9,44.7c20.5,0,33.3,3.8,35,10.4c1.8,6.8-7.8,16.7-26.3,27.1c-9.7,5.4-21.2,10.7-34,15.7
	c0.1,0.9,0.2,1.9,0.3,2.8c13.2-5,25.1-10.5,35-16.1c25.6-14.5,29.2-24.4,27.6-30.3c-3.7-13.9-38-15.1-78-8.7
	c0.4,0.8,0.9,1.7,1.3,2.5C1264.7,45.8,1277.9,44.7,1288.9,44.7z"/>
<path fill="#DB3B21" d="M1264,100.7c-0.1-1-0.2-1.9-0.3-2.8c-12.8,4.9-26.8,9.5-41.5,13.4c-23,6.2-43.8,9.9-61.2,11.5
	c0,0.9,0,1.8,0.1,2.7c19.1-1.8,40.8-5.9,61.8-11.5C1237.4,110,1251.3,105.5,1264,100.7z"/>
<path fill="#DB3B21" d="M1293.8,219.3c2,0,3.8,0,5.6,0l0.7-2.8c-2,0.1-4.1,0.1-6.3,0.1c-22.2-0.2-50.5-4.7-79.9-12.5
	c-27.4-7.3-50.3-16.1-67.5-24.8l-1.9,2.1c19.1,9.6,43.7,18.7,68.6,25.4C1242.8,214.6,1271.4,219.1,1293.8,219.3z"/>
</svg>
